@startuml

title __MEDIA's Class Diagram__\n

  namespace fr.cnam.foad.nfa035.badges.fileutils.streaming.media {
    abstract class fr.cnam.foad.nfa035.badges.fileutils.streaming.media.AbstractImageFrameMedia {
        + AbstractImageFrameMedia()
        + close()
        + getChannel()
        {abstract} + getEncodedImageInput()
        {abstract} + getEncodedImageOutput()
    }
  }
  

  namespace fr.cnam.foad.nfa035.badges.fileutils.streaming.media {
    interface fr.cnam.foad.nfa035.badges.fileutils.streaming.media.ImageFrameMedia {
        {abstract} + getChannel()
        {abstract} + getEncodedImageOutput()
    }
  }
  

  namespace fr.cnam.foad.nfa035.badges.fileutils.streaming.media {
    interface fr.cnam.foad.nfa035.badges.fileutils.streaming.media.ResumableImageFrameMedia {
        {abstract} + getEncodedImageReader()
    }
  }
  

  namespace fr.cnam.foad.nfa035.badges.fileutils.streaming.media {
    interface fr.cnam.foad.nfa035.badges.fileutils.streaming.media.WalletFrameMedia {
        {abstract} + getNumberOfLines()
        {abstract} + incrementLines()
    }
  }
  

  fr.cnam.foad.nfa035.badges.fileutils.streaming.media.AbstractImageFrameMedia .up.|> fr.cnam.foad.nfa035.badges.fileutils.streaming.media.ImageFrameMedia
  fr.cnam.foad.nfa035.badges.fileutils.streaming.media.AbstractImageFrameMedia .up.|> java.lang.AutoCloseable
  fr.cnam.foad.nfa035.badges.fileutils.streaming.media.AbstractImageFrameMedia o-- T : channel


right footer


PlantUML diagram generated by SketchIt! (https://bitbucket.org/pmesmeur/sketch.it)
For more information about this tool, please contact philippe.mesmeur@gmail.com
endfooter

@enduml
